[
  {
    "id": "2215915",
    "comp_id": "1093",
    "formatted_date": "14.10.2017",
    "season": "2017/2018",
    "week": "11",
    "venue": "TGW Arena (Pasching)",
    "venue_id": "90308",
    "venue_city": "Pasching",
    "status": "14:00",
    "timer": "",
    "time": "14:00",
    "localteam_id": "6413",
    "localteam_name": "LASK Linz",
    "localteam_score": "4",
    "visitorteam_id": "6468",
    "visitorteam_name": "Salzburg",
    "visitorteam_score": "3",
    "ht_score": "",
    "ft_score": "[-]",
    "et_score": null,
    "penalty_local": null,
    "penalty_visitor": null,
    "events": []
  },
  {
    "id": "2215912",
    "comp_id": "1093",
    "formatted_date": "14.10.2017",
    "season": "2017/2018",
    "week": "11",
    "venue": "CASHPOINT Arena (Altach)",
    "venue_id": "87748",
    "venue_city": "Altach",
    "status": "16:30",
    "timer": "",
    "time": "16:30",
    "localteam_id": "6461",
    "localteam_name": "Altach",
    "localteam_score": "3",
    "visitorteam_id": "6299",
    "visitorteam_name": "Admira",
    "visitorteam_score": "2",
    "ht_score": "",
    "ft_score": "[-]",
    "et_score": null,
    "penalty_local": null,
    "penalty_visitor": null,
    "events": []
  }
]